<?xml version="1.0" encoding="UTF-8"?>
<session version="1.0">
<refactoring comment="Copy element &apos;&apos; to &apos;gsd.appl.HyParViewLabTest.Controller.run()&apos;&#x0A;- Original project: &apos;Overnesia&apos;&#x0A;- Destination element: &apos;gsd.appl.HyParViewLabTest.Controller.run()&apos;&#x0A;- Original element: &apos;gsd.appl.HyParViewLabTest.Controller.handleFreeRiderRequest()&apos;" description="Copy method" destination="/src&lt;gsd.appl{HyParViewLabTest.java[HyParViewLabTest[Controller~run" element1="/src&lt;gsd.appl{HyParViewLabTest.java[HyParViewLabTest[Controller~handleFreeRiderRequest" flags="589830" id="org.eclipse.jdt.ui.copy" members="1" policy="org.eclipse.jdt.ui.copyMembers" stamp="1459511679649" version="1.0"/>
</session>